<svg xmlns="http://www.w3.org/2000/svg" width="16" height="16" viewBox="0 0 16 16">
    <g fill="none" fill-rule="evenodd">
        <rect width="16" height="16" fill="#c6985b" rx="8"/>
        <path fill="#FFF" fill-rule="nonzero" d="M6.974 7.661L.637 14.043a.456.456 0 0 0 .318.775c.116 0 .23-.044.319-.133l6.385-6.43 6.386 6.43a.447.447 0 0 0 .637 0 .456.456 0 0 0 0-.642L8.344 7.661l6.342-6.386a.456.456 0 0 0 0-.642.449.449 0 0 0-.637 0l-6.39 6.434L1.27.633a.449.449 0 0 0-.637 0 .456.456 0 0 0 0 .642L6.974 7.66z"/>
    </g>
</svg>
